﻿<?xml version="1.0" encoding="UTF-8"?>
<TestRun id="dddf3811-b322-4d46-b825-d5b1584da3fa" name="Asmit@PB119AT064 2016-03-09 12:42:29" runUser="ETEC\Asmit" xmlns="http://microsoft.com/schemas/VisualStudio/TeamTest/2010">
  <TestSettings name="Local" id="51182bf1-ae45-426a-af12-4d15af05cc83">
    <Description>These are default test settings for a local test run.</Description>
    <Deployment enabled="false" runDeploymentRoot="Asmit_PB119AT064 2016-03-09 12_42_29">
      <DeploymentItem filename="D:\bms\BMSRestServices\LoggingHelper\bin\Debug\LoggingHelper.dll" />
    </Deployment>
    <Execution>
      <TestTypeSpecific />
      <AgentRule name="Execution Agents">
      </AgentRule>
    </Execution>
  </TestSettings>
  <Times creation="2016-03-09T12:42:29.5425260+05:30" queuing="2016-03-09T12:42:30.4815041+05:30" start="2016-03-09T12:42:30.5515020+05:30" finish="2016-03-09T12:42:36.7533208+05:30" />
  <ResultSummary outcome="Failed">
    <Counters total="1" executed="1" error="0" failed="1" timeout="0" aborted="0" inconclusive="0" passedButRunAborted="0" notRunnable="0" notExecuted="0" disconnected="0" warning="0" passed="0" completed="0" inProgress="0" pending="0" />
  </ResultSummary>
  <TestDefinitions>
    <UnitTest name="TestMethod1" storage="d:\bms\bmsrestservices\testproject1\bin\debug\testproject1.dll" id="59863143-3238-122e-4d8a-637b491cc755">
      <Execution id="e395cdf3-4bc0-492b-9669-3bd223a0f9ab" />
      <TestMethod codeBase="D:/bms/BMSRestServices/TestProject1/bin/Debug/TestProject1.DLL" adapterTypeName="Microsoft.VisualStudio.TestTools.TestTypes.Unit.UnitTestAdapter, Microsoft.VisualStudio.QualityTools.Tips.UnitTest.Adapter, Version=10.0.0.0, Culture=neutral, PublicKeyToken=b03f5f7f11d50a3a" className="TestProject1.UnitTest1, TestProject1, Version=1.0.0.0, Culture=neutral, PublicKeyToken=null" name="TestMethod1" />
    </UnitTest>
  </TestDefinitions>
  <TestLists>
    <TestList name="Results Not in a List" id="8c84fa94-04c1-424b-9868-57a2d4851a1d" />
    <TestList name="All Loaded Results" id="19431567-8539-422a-85d7-44ee4e166bda" />
  </TestLists>
  <TestEntries>
    <TestEntry testId="59863143-3238-122e-4d8a-637b491cc755" executionId="e395cdf3-4bc0-492b-9669-3bd223a0f9ab" testListId="8c84fa94-04c1-424b-9868-57a2d4851a1d" />
  </TestEntries>
  <Results>
    <UnitTestResult executionId="e395cdf3-4bc0-492b-9669-3bd223a0f9ab" testId="59863143-3238-122e-4d8a-637b491cc755" testName="TestMethod1" computerName="PB119AT064" duration="00:00:04.4532113" startTime="2016-03-09T12:42:30.6255005+05:30" endTime="2016-03-09T12:42:36.5863250+05:30" testType="13cdc9d9-ddb5-4fa4-a97d-d965ccfc6d4b" outcome="Failed" testListId="8c84fa94-04c1-424b-9868-57a2d4851a1d" relativeResultsDirectory="e395cdf3-4bc0-492b-9669-3bd223a0f9ab">
      <Output>
        <ErrorInfo>
          <Message>Test method TestProject1.UnitTest1.TestMethod1 threw exception: 
System.IO.IOException: The process cannot access the file 'd:\servicelog\method_09032016_12.txt' because it is being used by another process.</Message>
          <StackTrace>    at System.IO.__Error.WinIOError(Int32 errorCode, String maybeFullPath)
   at System.IO.FileStream.Init(String path, FileMode mode, FileAccess access, Int32 rights, Boolean useRights, FileShare share, Int32 bufferSize, FileOptions options, SECURITY_ATTRIBUTES secAttrs, String msgPath, Boolean bFromProxy, Boolean useLongPath, Boolean checkHost)
   at System.IO.FileStream..ctor(String path, FileMode mode, FileAccess access, FileShare share, Int32 bufferSize, FileOptions options, String msgPath, Boolean bFromProxy, Boolean useLongPath, Boolean checkHost)
   at System.IO.StreamWriter.CreateFile(String path, Boolean append, Boolean checkHost)
   at System.IO.StreamWriter..ctor(String path, Boolean append, Encoding encoding, Int32 bufferSize, Boolean checkHost)
   at System.IO.StreamWriter..ctor(String path, Boolean append)
   at System.IO.File.AppendText(String path)
   at LoggingHelper.LoggingHelper.LogIntoFile(String request, String response, String exception, String MethodName) in D:\bms\BMSRestServices\LoggingHelper\LoggingHelper.cs:line 28
   at TestProject1.UnitTest1.TestMethod1() in D:\bms\BMSRestServices\TestProject1\UnitTest1.cs:line 15
</StackTrace>
        </ErrorInfo>
      </Output>
    </UnitTestResult>
  </Results>
</TestRun>