﻿<?xml version="1.0" encoding="UTF-8"?>
<TestRun id="1917be68-f967-42f0-b995-843aa22115e1" name="Asmit@PB119AT064 2016-03-09 12:42:41" runUser="ETEC\Asmit" xmlns="http://microsoft.com/schemas/VisualStudio/TeamTest/2010">
  <TestSettings name="Local" id="51182bf1-ae45-426a-af12-4d15af05cc83">
    <Description>These are default test settings for a local test run.</Description>
    <Deployment enabled="false" runDeploymentRoot="Asmit_PB119AT064 2016-03-09 12_42_41">
      <DeploymentItem filename="D:\bms\BMSRestServices\LoggingHelper\bin\Debug\LoggingHelper.dll" />
    </Deployment>
    <Execution>
      <TestTypeSpecific />
      <AgentRule name="Execution Agents">
      </AgentRule>
    </Execution>
  </TestSettings>
  <Times creation="2016-03-09T12:42:41.0871939+05:30" queuing="2016-03-09T12:42:42.0671651+05:30" start="2016-03-09T12:42:42.1371630+05:30" finish="2016-03-09T12:43:22.6859831+05:30" />
  <ResultSummary outcome="Error">
    <Counters total="1" executed="1" error="0" failed="0" timeout="0" aborted="1" inconclusive="0" passedButRunAborted="0" notRunnable="0" notExecuted="0" disconnected="0" warning="0" passed="0" completed="0" inProgress="0" pending="0" />
    <RunInfos>
      <RunInfo computerName="PB119AT064" outcome="Error" timestamp="2016-03-09T12:43:22.6859831+05:30">
        <Text>Test host process exited unexpectedly.</Text>
      </RunInfo>
    </RunInfos>
  </ResultSummary>
  <TestDefinitions>
    <UnitTest name="TestMethod1" storage="d:\bms\bmsrestservices\testproject1\bin\debug\testproject1.dll" id="59863143-3238-122e-4d8a-637b491cc755">
      <Execution id="dac08f3f-641b-4cb1-8ea1-88677783f9ce" />
      <TestMethod codeBase="D:/bms/BMSRestServices/TestProject1/bin/Debug/TestProject1.DLL" adapterTypeName="Microsoft.VisualStudio.TestTools.TestTypes.Unit.UnitTestAdapter, Microsoft.VisualStudio.QualityTools.Tips.UnitTest.Adapter, Version=10.0.0.0, Culture=neutral, PublicKeyToken=b03f5f7f11d50a3a" className="TestProject1.UnitTest1, TestProject1, Version=1.0.0.0, Culture=neutral, PublicKeyToken=null" name="TestMethod1" />
    </UnitTest>
  </TestDefinitions>
  <TestLists>
    <TestList name="Results Not in a List" id="8c84fa94-04c1-424b-9868-57a2d4851a1d" />
    <TestList name="All Loaded Results" id="19431567-8539-422a-85d7-44ee4e166bda" />
  </TestLists>
  <TestEntries>
    <TestEntry testId="59863143-3238-122e-4d8a-637b491cc755" executionId="dac08f3f-641b-4cb1-8ea1-88677783f9ce" testListId="8c84fa94-04c1-424b-9868-57a2d4851a1d" />
  </TestEntries>
  <Results>
    <UnitTestResult executionId="dac08f3f-641b-4cb1-8ea1-88677783f9ce" testId="59863143-3238-122e-4d8a-637b491cc755" testName="TestMethod1" computerName="PB119AT064" duration="00:00:40.4888219" startTime="2016-03-09T12:42:42.1971612+05:30" endTime="2016-03-09T12:43:22.6859831+05:30" testType="13cdc9d9-ddb5-4fa4-a97d-d965ccfc6d4b" outcome="Aborted" testListId="8c84fa94-04c1-424b-9868-57a2d4851a1d" relativeResultsDirectory="dac08f3f-641b-4cb1-8ea1-88677783f9ce">
    </UnitTestResult>
  </Results>
</TestRun>